%YAML 1.1
%TAG !u! tag:unity3d.com,2011:
--- !u!1 &2157037269501953678
GameObject:
  m_ObjectHideFlags: 0
  m_CorrespondingSourceObject: {fileID: 0}
  m_PrefabInstance: {fileID: 0}
  m_PrefabAsset: {fileID: 0}
  serializedVersion: 6
  m_Component:
  - component: {fileID: 4380008770072147421}
  - component: {fileID: 4798968447994279819}
  m_Layer: 0
  m_Name: Chess
  m_TagString: Untagged
  m_Icon: {fileID: 0}
  m_NavMeshLayer: 0
  m_StaticEditorFlags: 0
  m_IsActive: 1
--- !u!4 &4380008770072147421
Transform:
  m_ObjectHideFlags: 0
  m_CorrespondingSourceObject: {fileID: 0}
  m_PrefabInstance: {fileID: 0}
  m_PrefabAsset: {fileID: 0}
  m_GameObject: {fileID: 2157037269501953678}
  m_LocalRotation: {x: 0, y: 0, z: 0, w: 1}
  m_LocalPosition: {x: 0, y: 0, z: 0}
  m_LocalScale: {x: 1, y: 1, z: 1}
  m_ConstrainProportionsScale: 0
  m_Children:
  - {fileID: 4527324720378092646}
  m_Father: {fileID: 0}
  m_RootOrder: 0
  m_LocalEulerAnglesHint: {x: 0, y: 0, z: 0}
--- !u!156049354 &4798968447994279819
Grid:
  m_ObjectHideFlags: 0
  m_CorrespondingSourceObject: {fileID: 0}
  m_PrefabInstance: {fileID: 0}
  m_PrefabAsset: {fileID: 0}
  m_GameObject: {fileID: 2157037269501953678}
  m_Enabled: 1
  m_CellSize: {x: 1, y: 1, z: 0}
  m_CellGap: {x: 0, y: 0, z: 0}
  m_CellLayout: 0
  m_CellSwizzle: 0
--- !u!1 &7270208842139855152
GameObject:
  m_ObjectHideFlags: 0
  m_CorrespondingSourceObject: {fileID: 0}
  m_PrefabInstance: {fileID: 0}
  m_PrefabAsset: {fileID: 0}
  serializedVersion: 6
  m_Component:
  - component: {fileID: 4527324720378092646}
  - component: {fileID: 8007318831233350967}
  - component: {fileID: 8571373978921175468}
  m_Layer: 0
  m_Name: Layer1
  m_TagString: Untagged
  m_Icon: {fileID: 0}
  m_NavMeshLayer: 0
  m_StaticEditorFlags: 0
  m_IsActive: 1
--- !u!4 &4527324720378092646
Transform:
  m_ObjectHideFlags: 0
  m_CorrespondingSourceObject: {fileID: 0}
  m_PrefabInstance: {fileID: 0}
  m_PrefabAsset: {fileID: 0}
  m_GameObject: {fileID: 7270208842139855152}
  m_LocalRotation: {x: -0, y: -0, z: -0, w: 1}
  m_LocalPosition: {x: 0, y: 0, z: 0}
  m_LocalScale: {x: 1, y: 1, z: 1}
  m_ConstrainProportionsScale: 0
  m_Children: []
  m_Father: {fileID: 4380008770072147421}
  m_RootOrder: 0
  m_LocalEulerAnglesHint: {x: 0, y: 0, z: 0}
--- !u!1839735485 &8007318831233350967
Tilemap:
  m_ObjectHideFlags: 0
  m_CorrespondingSourceObject: {fileID: 0}
  m_PrefabInstance: {fileID: 0}
  m_PrefabAsset: {fileID: 0}
  m_GameObject: {fileID: 7270208842139855152}
  m_Enabled: 1
  m_Tiles:
  - first: {x: -4, y: -5, z: 0}
    second:
      serializedVersion: 2
      m_TileIndex: 25
      m_TileSpriteIndex: 25
      m_TileMatrixIndex: 0
      m_TileColorIndex: 0
      m_TileObjectToInstantiateIndex: 65535
      dummyAlignment: 0
      m_AllTileFlags: 1073741825
  - first: {x: -3, y: -5, z: 0}
    second:
      serializedVersion: 2
      m_TileIndex: 26
      m_TileSpriteIndex: 26
      m_TileMatrixIndex: 0
      m_TileColorIndex: 0
      m_TileObjectToInstantiateIndex: 65535
      dummyAlignment: 0
      m_AllTileFlags: 1073741825
  - first: {x: -2, y: -5, z: 0}
    second:
      serializedVersion: 2
      m_TileIndex: 27
      m_TileSpriteIndex: 27
      m_TileMatrixIndex: 0
      m_TileColorIndex: 0
      m_TileObjectToInstantiateIndex: 65535
      dummyAlignment: 0
      m_AllTileFlags: 1073741825
  - first: {x: -1, y: -5, z: 0}
    second:
      serializedVersion: 2
      m_TileIndex: 28
      m_TileSpriteIndex: 28
      m_TileMatrixIndex: 0
      m_TileColorIndex: 0
      m_TileObjectToInstantiateIndex: 65535
      dummyAlignment: 0
      m_AllTileFlags: 1073741825
  - first: {x: 0, y: -5, z: 0}
    second:
      serializedVersion: 2
      m_TileIndex: 29
      m_TileSpriteIndex: 29
      m_TileMatrixIndex: 0
      m_TileColorIndex: 0
      m_TileObjectToInstantiateIndex: 65535
      dummyAlignment: 0
      m_AllTileFlags: 1073741825
  - first: {x: -4, y: -4, z: 0}
    second:
      serializedVersion: 2
      m_TileIndex: 20
      m_TileSpriteIndex: 20
      m_TileMatrixIndex: 0
      m_TileColorIndex: 0
      m_TileObjectToInstantiateIndex: 65535
      dummyAlignment: 0
      m_AllTileFlags: 1073741825
  - first: {x: -3, y: -4, z: 0}
    second:
      serializedVersion: 2
      m_TileIndex: 21
      m_TileSpriteIndex: 21
      m_TileMatrixIndex: 0
      m_TileColorIndex: 0
      m_TileObjectToInstantiateIndex: 65535
      dummyAlignment: 0
      m_AllTileFlags: 1073741825
  - first: {x: -2, y: -4, z: 0}
    second:
      serializedVersion: 2
      m_TileIndex: 22
      m_TileSpriteIndex: 22
      m_TileMatrixIndex: 0
      m_TileColorIndex: 0
      m_TileObjectToInstantiateIndex: 65535
      dummyAlignment: 0
      m_AllTileFlags: 1073741825
  - first: {x: -1, y: -4, z: 0}
    second:
      serializedVersion: 2
      m_TileIndex: 23
      m_TileSpriteIndex: 23
      m_TileMatrixIndex: 0
      m_TileColorIndex: 0
      m_TileObjectToInstantiateIndex: 65535
      dummyAlignment: 0
      m_AllTileFlags: 1073741825
  - first: {x: 0, y: -4, z: 0}
    second:
      serializedVersion: 2
      m_TileIndex: 24
      m_TileSpriteIndex: 24
      m_TileMatrixIndex: 0
      m_TileColorIndex: 0
      m_TileObjectToInstantiateIndex: 65535
      dummyAlignment: 0
      m_AllTileFlags: 1073741825
  - first: {x: -4, y: -3, z: 0}
    second:
      serializedVersion: 2
      m_TileIndex: 15
      m_TileSpriteIndex: 15
      m_TileMatrixIndex: 0
      m_TileColorIndex: 0
      m_TileObjectToInstantiateIndex: 65535
      dummyAlignment: 0
      m_AllTileFlags: 1073741825
  - first: {x: -3, y: -3, z: 0}
    second:
      serializedVersion: 2
      m_TileIndex: 16
      m_TileSpriteIndex: 16
      m_TileMatrixIndex: 0
      m_TileColorIndex: 0
      m_TileObjectToInstantiateIndex: 65535
      dummyAlignment: 0
      m_AllTileFlags: 1073741825
  - first: {x: -2, y: -3, z: 0}
    second:
      serializedVersion: 2
      m_TileIndex: 17
      m_TileSpriteIndex: 17
      m_TileMatrixIndex: 0
      m_TileColorIndex: 0
      m_TileObjectToInstantiateIndex: 65535
      dummyAlignment: 0
      m_AllTileFlags: 1073741825
  - first: {x: -1, y: -3, z: 0}
    second:
      serializedVersion: 2
      m_TileIndex: 18
      m_TileSpriteIndex: 18
      m_TileMatrixIndex: 0
      m_TileColorIndex: 0
      m_TileObjectToInstantiateIndex: 65535
      dummyAlignment: 0
      m_AllTileFlags: 1073741825
  - first: {x: 0, y: -3, z: 0}
    second:
      serializedVersion: 2
      m_TileIndex: 19
      m_TileSpriteIndex: 19
      m_TileMatrixIndex: 0
      m_TileColorIndex: 0
      m_TileObjectToInstantiateIndex: 65535
      dummyAlignment: 0
      m_AllTileFlags: 1073741825
  - first: {x: -4, y: -2, z: 0}
    second:
      serializedVersion: 2
      m_TileIndex: 10
      m_TileSpriteIndex: 10
      m_TileMatrixIndex: 0
      m_TileColorIndex: 0
      m_TileObjectToInstantiateIndex: 65535
      dummyAlignment: 0
      m_AllTileFlags: 1073741825
  - first: {x: -3, y: -2, z: 0}
    second:
      serializedVersion: 2
      m_TileIndex: 11
      m_TileSpriteIndex: 11
      m_TileMatrixIndex: 0
      m_TileColorIndex: 0
      m_TileObjectToInstantiateIndex: 65535
      dummyAlignment: 0
      m_AllTileFlags: 1073741825
  - first: {x: -2, y: -2, z: 0}
    second:
      serializedVersion: 2
      m_TileIndex: 12
      m_TileSpriteIndex: 12
      m_TileMatrixIndex: 0
      m_TileColorIndex: 0
      m_TileObjectToInstantiateIndex: 65535
      dummyAlignment: 0
      m_AllTileFlags: 1073741825
  - first: {x: -1, y: -2, z: 0}
    second:
      serializedVersion: 2
      m_TileIndex: 13
      m_TileSpriteIndex: 13
      m_TileMatrixIndex: 0
      m_TileColorIndex: 0
      m_TileObjectToInstantiateIndex: 65535
      dummyAlignment: 0
      m_AllTileFlags: 1073741825
  - first: {x: 0, y: -2, z: 0}
    second:
      serializedVersion: 2
      m_TileIndex: 14
      m_TileSpriteIndex: 14
      m_TileMatrixIndex: 0
      m_TileColorIndex: 0
      m_TileObjectToInstantiateIndex: 65535
      dummyAlignment: 0
      m_AllTileFlags: 1073741825
  - first: {x: -4, y: -1, z: 0}
    second:
      serializedVersion: 2
      m_TileIndex: 5
      m_TileSpriteIndex: 5
      m_TileMatrixIndex: 0
      m_TileColorIndex: 0
      m_TileObjectToInstantiateIndex: 65535
      dummyAlignment: 0
      m_AllTileFlags: 1073741825
  - first: {x: -3, y: -1, z: 0}
    second:
      serializedVersion: 2
      m_TileIndex: 6
      m_TileSpriteIndex: 6
      m_TileMatrixIndex: 0
      m_TileColorIndex: 0
      m_TileObjectToInstantiateIndex: 65535
      dummyAlignment: 0
      m_AllTileFlags: 1073741825
  - first: {x: -2, y: -1, z: 0}
    second:
      serializedVersion: 2
      m_TileIndex: 7
      m_TileSpriteIndex: 7
      m_TileMatrixIndex: 0
      m_TileColorIndex: 0
      m_TileObjectToInstantiateIndex: 65535
      dummyAlignment: 0
      m_AllTileFlags: 1073741825
  - first: {x: -1, y: -1, z: 0}
    second:
      serializedVersion: 2
      m_TileIndex: 8
      m_TileSpriteIndex: 8
      m_TileMatrixIndex: 0
      m_TileColorIndex: 0
      m_TileObjectToInstantiateIndex: 65535
      dummyAlignment: 0
      m_AllTileFlags: 1073741825
  - first: {x: 0, y: -1, z: 0}
    second:
      serializedVersion: 2
      m_TileIndex: 9
      m_TileSpriteIndex: 9
      m_TileMatrixIndex: 0
      m_TileColorIndex: 0
      m_TileObjectToInstantiateIndex: 65535
      dummyAlignment: 0
      m_AllTileFlags: 1073741825
  - first: {x: 4, y: -1, z: 0}
    second:
      serializedVersion: 2
      m_TileIndex: 30
      m_TileSpriteIndex: 4294967295
      m_TileMatrixIndex: 0
      m_TileColorIndex: 0
      m_TileObjectToInstantiateIndex: 65535
      dummyAlignment: 0
      m_AllTileFlags: 1073741826
  - first: {x: -4, y: 0, z: 0}
    second:
      serializedVersion: 2
      m_TileIndex: 0
      m_TileSpriteIndex: 0
      m_TileMatrixIndex: 0
      m_TileColorIndex: 0
      m_TileObjectToInstantiateIndex: 65535
      dummyAlignment: 0
      m_AllTileFlags: 1073741825
  - first: {x: -3, y: 0, z: 0}
    second:
      serializedVersion: 2
      m_TileIndex: 1
      m_TileSpriteIndex: 1
      m_TileMatrixIndex: 0
      m_TileColorIndex: 0
      m_TileObjectToInstantiateIndex: 65535
      dummyAlignment: 0
      m_AllTileFlags: 1073741825
  - first: {x: -2, y: 0, z: 0}
    second:
      serializedVersion: 2
      m_TileIndex: 2
      m_TileSpriteIndex: 2
      m_TileMatrixIndex: 0
      m_TileColorIndex: 0
      m_TileObjectToInstantiateIndex: 65535
      dummyAlignment: 0
      m_AllTileFlags: 1073741825
  - first: {x: -1, y: 0, z: 0}
    second:
      serializedVersion: 2
      m_TileIndex: 3
      m_TileSpriteIndex: 3
      m_TileMatrixIndex: 0
      m_TileColorIndex: 0
      m_TileObjectToInstantiateIndex: 65535
      dummyAlignment: 0
      m_AllTileFlags: 1073741825
  - first: {x: 0, y: 0, z: 0}
    second:
      serializedVersion: 2
      m_TileIndex: 4
      m_TileSpriteIndex: 4
      m_TileMatrixIndex: 0
      m_TileColorIndex: 0
      m_TileObjectToInstantiateIndex: 65535
      dummyAlignment: 0
      m_AllTileFlags: 1073741825
  m_AnimatedTiles: {}
  m_TileAssetArray:
  - m_RefCount: 1
    m_Data: {fileID: 11400000, guid: 9cd127312aef2e2468c8c3fe07870dd4, type: 2}
  - m_RefCount: 1
    m_Data: {fileID: 11400000, guid: b60bbb77bfaadd842a67e40b861a5982, type: 2}
  - m_RefCount: 1
    m_Data: {fileID: 11400000, guid: 495a8a9a0a0dab9429f8e39deee62099, type: 2}
  - m_RefCount: 1
    m_Data: {fileID: 11400000, guid: a1c566c71e8488f4fa871aa2fa262a44, type: 2}
  - m_RefCount: 1
    m_Data: {fileID: 11400000, guid: 375d4b6f59a7dda43ace524cb160f522, type: 2}
  - m_RefCount: 1
    m_Data: {fileID: 11400000, guid: 5376083e998422348a6470607491f529, type: 2}
  - m_RefCount: 1
    m_Data: {fileID: 11400000, guid: b743e95fdc6ada7499f02eda5c33b0ab, type: 2}
  - m_RefCount: 1
    m_Data: {fileID: 11400000, guid: c07e62cb8cdf2894d96153b9b0039c8d, type: 2}
  - m_RefCount: 1
    m_Data: {fileID: 11400000, guid: cd66ab0528c81424784e153cf32eab9b, type: 2}
  - m_RefCount: 1
    m_Data: {fileID: 11400000, guid: 5e7fbeab5b8030047bcf15eeff8955d6, type: 2}
  - m_RefCount: 1
    m_Data: {fileID: 11400000, guid: a5f8ed6c5ec8eca469c39b6cae3c03df, type: 2}
  - m_RefCount: 1
    m_Data: {fileID: 11400000, guid: 0200ccbcf1fb98845a934859f02580d2, type: 2}
  - m_RefCount: 1
    m_Data: {fileID: 11400000, guid: d1bfec32a62e589438e190384e18b8dc, type: 2}
  - m_RefCount: 1
    m_Data: {fileID: 11400000, guid: d984594f7a4f4e0479f4432f044e8dd4, type: 2}
  - m_RefCount: 1
    m_Data: {fileID: 11400000, guid: b2842d617eab7f343a45d9dc0541a5b1, type: 2}
  - m_RefCount: 1
    m_Data: {fileID: 11400000, guid: 58aefb179d93e1a479d8c431e110405e, type: 2}
  - m_RefCount: 1
    m_Data: {fileID: 11400000, guid: 9a3053bbecb1d7d4e86688602651391d, type: 2}
  - m_RefCount: 1
    m_Data: {fileID: 11400000, guid: 10af0943ef670904983f031870d9e0d6, type: 2}
  - m_RefCount: 1
    m_Data: {fileID: 11400000, guid: a031fb5317e88124ba0b8c3a95486746, type: 2}
  - m_RefCount: 1
    m_Data: {fileID: 11400000, guid: 9af48e615b1ddac46b1c0a9f7b2e802f, type: 2}
  - m_RefCount: 1
    m_Data: {fileID: 11400000, guid: 134856d2845099d42a53bb2ed9ffd8fb, type: 2}
  - m_RefCount: 1
    m_Data: {fileID: 11400000, guid: d20f6248df2b49d46b2716272ec8a14c, type: 2}
  - m_RefCount: 1
    m_Data: {fileID: 11400000, guid: b56c72799b172ce41a1d0a237fa275af, type: 2}
  - m_RefCount: 1
    m_Data: {fileID: 11400000, guid: 976f918d8da9c0f45ab7c813e20f2d7c, type: 2}
  - m_RefCount: 1
    m_Data: {fileID: 11400000, guid: 148184c53ad8695478399e9aba94c370, type: 2}
  - m_RefCount: 1
    m_Data: {fileID: 11400000, guid: fd5385e7c622faf4bb6a7088d1b4384e, type: 2}
  - m_RefCount: 1
    m_Data: {fileID: 11400000, guid: e4cc62247598a1f44bdfc2025273cecb, type: 2}
  - m_RefCount: 1
    m_Data: {fileID: 11400000, guid: c0545cf690ecd174583d908ce11fdfe5, type: 2}
  - m_RefCount: 1
    m_Data: {fileID: 11400000, guid: d5efc7e8963366645bfd3bb7eba7f286, type: 2}
  - m_RefCount: 1
    m_Data: {fileID: 11400000, guid: faefbd37e78a7b546a668365a5e98f46, type: 2}
  - m_RefCount: 1
    m_Data: {fileID: 11400000, guid: ae4ad70e42b673f429aaca1efcb95c18, type: 2}
  m_TileSpriteArray:
  - m_RefCount: 1
    m_Data: {fileID: -2140088969, guid: cdb8f79ef4693ab40a4f414c61cf543f, type: 3}
  - m_RefCount: 1
    m_Data: {fileID: 1042502941, guid: cdb8f79ef4693ab40a4f414c61cf543f, type: 3}
  - m_RefCount: 1
    m_Data: {fileID: 1695649653, guid: cdb8f79ef4693ab40a4f414c61cf543f, type: 3}
  - m_RefCount: 1
    m_Data: {fileID: -567722237, guid: cdb8f79ef4693ab40a4f414c61cf543f, type: 3}
  - m_RefCount: 1
    m_Data: {fileID: -1900046090, guid: cdb8f79ef4693ab40a4f414c61cf543f, type: 3}
  - m_RefCount: 1
    m_Data: {fileID: 1008120822, guid: cdb8f79ef4693ab40a4f414c61cf543f, type: 3}
  - m_RefCount: 1
    m_Data: {fileID: 1608059585, guid: cdb8f79ef4693ab40a4f414c61cf543f, type: 3}
  - m_RefCount: 1
    m_Data: {fileID: -2073725583, guid: cdb8f79ef4693ab40a4f414c61cf543f, type: 3}
  - m_RefCount: 1
    m_Data: {fileID: 690406887, guid: cdb8f79ef4693ab40a4f414c61cf543f, type: 3}
  - m_RefCount: 1
    m_Data: {fileID: -1895661719, guid: cdb8f79ef4693ab40a4f414c61cf543f, type: 3}
  - m_RefCount: 1
    m_Data: {fileID: 787649773, guid: cdb8f79ef4693ab40a4f414c61cf543f, type: 3}
  - m_RefCount: 1
    m_Data: {fileID: 1695386957, guid: cdb8f79ef4693ab40a4f414c61cf543f, type: 3}
  - m_RefCount: 1
    m_Data: {fileID: -2045034355, guid: cdb8f79ef4693ab40a4f414c61cf543f, type: 3}
  - m_RefCount: 1
    m_Data: {fileID: 2071383515, guid: cdb8f79ef4693ab40a4f414c61cf543f, type: 3}
  - m_RefCount: 1
    m_Data: {fileID: -448272386, guid: cdb8f79ef4693ab40a4f414c61cf543f, type: 3}
  - m_RefCount: 1
    m_Data: {fileID: -1800793943, guid: cdb8f79ef4693ab40a4f414c61cf543f, type: 3}
  - m_RefCount: 1
    m_Data: {fileID: -1341535860, guid: cdb8f79ef4693ab40a4f414c61cf543f, type: 3}
  - m_RefCount: 1
    m_Data: {fileID: 546878770, guid: cdb8f79ef4693ab40a4f414c61cf543f, type: 3}
  - m_RefCount: 1
    m_Data: {fileID: -2053175121, guid: cdb8f79ef4693ab40a4f414c61cf543f, type: 3}
  - m_RefCount: 1
    m_Data: {fileID: 2010868363, guid: cdb8f79ef4693ab40a4f414c61cf543f, type: 3}
  - m_RefCount: 1
    m_Data: {fileID: -1623411674, guid: cdb8f79ef4693ab40a4f414c61cf543f, type: 3}
  - m_RefCount: 1
    m_Data: {fileID: 2128922312, guid: cdb8f79ef4693ab40a4f414c61cf543f, type: 3}
  - m_RefCount: 1
    m_Data: {fileID: 89278941, guid: cdb8f79ef4693ab40a4f414c61cf543f, type: 3}
  - m_RefCount: 1
    m_Data: {fileID: 113414713, guid: cdb8f79ef4693ab40a4f414c61cf543f, type: 3}
  - m_RefCount: 1
    m_Data: {fileID: 1882606515, guid: cdb8f79ef4693ab40a4f414c61cf543f, type: 3}
  - m_RefCount: 1
    m_Data: {fileID: 1741135209, guid: cdb8f79ef4693ab40a4f414c61cf543f, type: 3}
  - m_RefCount: 1
    m_Data: {fileID: 1795995437, guid: cdb8f79ef4693ab40a4f414c61cf543f, type: 3}
  - m_RefCount: 1
    m_Data: {fileID: 60242650, guid: cdb8f79ef4693ab40a4f414c61cf543f, type: 3}
  - m_RefCount: 1
    m_Data: {fileID: 1547813265, guid: cdb8f79ef4693ab40a4f414c61cf543f, type: 3}
  - m_RefCount: 1
    m_Data: {fileID: -1177454514, guid: cdb8f79ef4693ab40a4f414c61cf543f, type: 3}
  m_TileMatrixArray:
  - m_RefCount: 31
    m_Data:
      e00: 1
      e01: 0
      e02: 0
      e03: 0
      e10: 0
      e11: 1
      e12: 0
      e13: 0
      e20: 0
      e21: 0
      e22: 1
      e23: 0
      e30: 0
      e31: 0
      e32: 0
      e33: 1
  m_TileColorArray:
  - m_RefCount: 31
    m_Data: {r: 1, g: 1, b: 1, a: 1}
  m_TileObjectToInstantiateArray: []
  m_AnimationFrameRate: 1
  m_Color: {r: 1, g: 1, b: 1, a: 1}
  m_Origin: {x: -4, y: -5, z: 0}
  m_Size: {x: 9, y: 6, z: 1}
  m_TileAnchor: {x: 0.5, y: 0.5, z: 0}
  m_TileOrientation: 0
  m_TileOrientationMatrix:
    e00: 1
    e01: 0
    e02: 0
    e03: 0
    e10: 0
    e11: 1
    e12: 0
    e13: 0
    e20: 0
    e21: 0
    e22: 1
    e23: 0
    e30: 0
    e31: 0
    e32: 0
    e33: 1
--- !u!483693784 &8571373978921175468
TilemapRenderer:
  m_ObjectHideFlags: 0
  m_CorrespondingSourceObject: {fileID: 0}
  m_PrefabInstance: {fileID: 0}
  m_PrefabAsset: {fileID: 0}
  m_GameObject: {fileID: 7270208842139855152}
  m_Enabled: 1
  m_CastShadows: 0
  m_ReceiveShadows: 0
  m_DynamicOccludee: 0
  m_StaticShadowCaster: 0
  m_MotionVectors: 1
  m_LightProbeUsage: 0
  m_ReflectionProbeUsage: 0
  m_RayTracingMode: 0
  m_RayTraceProcedural: 0
  m_RenderingLayerMask: 1
  m_RendererPriority: 0
  m_Materials:
  - {fileID: 2100000, guid: a97c105638bdf8b4a8650670310a4cd3, type: 2}
  m_StaticBatchInfo:
    firstSubMesh: 0
    subMeshCount: 0
  m_StaticBatchRoot: {fileID: 0}
  m_ProbeAnchor: {fileID: 0}
  m_LightProbeVolumeOverride: {fileID: 0}
  m_ScaleInLightmap: 1
  m_ReceiveGI: 1
  m_PreserveUVs: 0
  m_IgnoreNormalsForChartDetection: 0
  m_ImportantGI: 0
  m_StitchLightmapSeams: 1
  m_SelectedEditorRenderState: 0
  m_MinimumChartSize: 4
  m_AutoUVMaxDistance: 0.5
  m_AutoUVMaxAngle: 89
  m_LightmapParameters: {fileID: 0}
  m_SortingLayerID: 0
  m_SortingLayer: 0
  m_SortingOrder: 0
  m_ChunkSize: {x: 32, y: 32, z: 32}
  m_ChunkCullingBounds: {x: 0, y: 0, z: 0}
  m_MaxChunkCount: 16
  m_MaxFrameAge: 16
  m_SortOrder: 0
  m_Mode: 0
  m_DetectChunkCullingBounds: 0
  m_MaskInteraction: 0
--- !u!114 &7092967637031560435
MonoBehaviour:
  m_ObjectHideFlags: 0
  m_CorrespondingSourceObject: {fileID: 0}
  m_PrefabInstance: {fileID: 0}
  m_PrefabAsset: {fileID: 0}
  m_GameObject: {fileID: 0}
  m_Enabled: 1
  m_EditorHideFlags: 0
  m_Script: {fileID: 12395, guid: 0000000000000000e000000000000000, type: 0}
  m_Name: Palette Settings
  m_EditorClassIdentifier: 
  cellSizing: 0
  m_TransparencySortMode: 0
  m_TransparencySortAxis: {x: 0, y: 0, z: 1}
